{
    "add_repo": {
        "intro": "ചേർക്കേണ്ട സംഭരണിയുടെ ക്യു.ആർ കോഡ് അവ കാണപ്പെടുന്ന ഉപകരണത്തിൽ നിന്നോ വെബ്സൈറ്റുകളിൽ നിന്നോ നിരൂപിക്കുക.",
        "no_internet": "ഇന്റർനെറ്റ് ഇല്ലേ? പ്രശ്നമില്ല . <a href=\"../swap/\">ഇന്റർനെറ്റ് ഇല്ലാതെ ആപ്പുകൾ എങ്ങനെ കൈമാറ്റം ചെയ്യും </a>എന്നത്  പഠിക്കുക",
        "open_repo_link": {
            "short_summary": "സംഭരണി ലിങ്ക് തുറക്കുക"
        }
    }
}
